digraph G {
"base_link" -> "kinect_link"[label=" Broadcaster: /static_transform_publisher_node\nAverage rate: 98.857\nBuffer length: 4.987\nMost recent transform: 21980.412\nOldest transform: 21975.425\n"];
"base_footprint" -> "base_link"[label=" Broadcaster: /robot_state_publisher\nAverage rate: 10000.0\nBuffer length: 0.0\nMost recent transform: 0.0\nOldest transform: 0.0\n"];
"odom" -> "base_footprint"[label=" Broadcaster: /gazebo\nAverage rate: 20.204\nBuffer length: 4.9\nMost recent transform: 21980.357\nOldest transform: 21975.457\n"];
"camera_rgb_frame" -> "camera_depth_frame"[label=" Broadcaster: /robot_state_publisher\nAverage rate: 10000.0\nBuffer length: 0.0\nMost recent transform: 0.0\nOldest transform: 0.0\n"];
"base_link" -> "camera_rgb_frame"[label=" Broadcaster: /robot_state_publisher\nAverage rate: 10000.0\nBuffer length: 0.0\nMost recent transform: 0.0\nOldest transform: 0.0\n"];
"camera_depth_frame" -> "camera_depth_optical_frame"[label=" Broadcaster: /robot_state_publisher\nAverage rate: 10000.0\nBuffer length: 0.0\nMost recent transform: 0.0\nOldest transform: 0.0\n"];
"camera_rgb_frame" -> "camera_link"[label=" Broadcaster: /robot_state_publisher\nAverage rate: 10000.0\nBuffer length: 0.0\nMost recent transform: 0.0\nOldest transform: 0.0\n"];
"camera_rgb_frame" -> "camera_rgb_optical_frame"[label=" Broadcaster: /robot_state_publisher\nAverage rate: 10000.0\nBuffer length: 0.0\nMost recent transform: 0.0\nOldest transform: 0.0\n"];
"base_link" -> "caster_back_link"[label=" Broadcaster: /robot_state_publisher\nAverage rate: 10000.0\nBuffer length: 0.0\nMost recent transform: 0.0\nOldest transform: 0.0\n"];
"base_link" -> "caster_front_link"[label=" Broadcaster: /robot_state_publisher\nAverage rate: 10000.0\nBuffer length: 0.0\nMost recent transform: 0.0\nOldest transform: 0.0\n"];
"base_link" -> "cliff_sensor_front_link"[label=" Broadcaster: /robot_state_publisher\nAverage rate: 10000.0\nBuffer length: 0.0\nMost recent transform: 0.0\nOldest transform: 0.0\n"];
"base_link" -> "cliff_sensor_left_link"[label=" Broadcaster: /robot_state_publisher\nAverage rate: 10000.0\nBuffer length: 0.0\nMost recent transform: 0.0\nOldest transform: 0.0\n"];
"base_link" -> "cliff_sensor_right_link"[label=" Broadcaster: /robot_state_publisher\nAverage rate: 10000.0\nBuffer length: 0.0\nMost recent transform: 0.0\nOldest transform: 0.0\n"];
"base_link" -> "gyro_link"[label=" Broadcaster: /robot_state_publisher\nAverage rate: 10000.0\nBuffer length: 0.0\nMost recent transform: 0.0\nOldest transform: 0.0\n"];
"base_link" -> "laser_sensor_link"[label=" Broadcaster: /robot_state_publisher\nAverage rate: 10000.0\nBuffer length: 0.0\nMost recent transform: 0.0\nOldest transform: 0.0\n"];
"base_link" -> "mount_asus_xtion_pro_link"[label=" Broadcaster: /robot_state_publisher\nAverage rate: 10000.0\nBuffer length: 0.0\nMost recent transform: 0.0\nOldest transform: 0.0\n"];
"base_link" -> "plate_bottom_link"[label=" Broadcaster: /robot_state_publisher\nAverage rate: 10000.0\nBuffer length: 0.0\nMost recent transform: 0.0\nOldest transform: 0.0\n"];
"base_link" -> "plate_middle_link"[label=" Broadcaster: /robot_state_publisher\nAverage rate: 10000.0\nBuffer length: 0.0\nMost recent transform: 0.0\nOldest transform: 0.0\n"];
"base_link" -> "plate_top_link"[label=" Broadcaster: /robot_state_publisher\nAverage rate: 10000.0\nBuffer length: 0.0\nMost recent transform: 0.0\nOldest transform: 0.0\n"];
"base_link" -> "pole_bottom_0_link"[label=" Broadcaster: /robot_state_publisher\nAverage rate: 10000.0\nBuffer length: 0.0\nMost recent transform: 0.0\nOldest transform: 0.0\n"];
"base_link" -> "pole_bottom_1_link"[label=" Broadcaster: /robot_state_publisher\nAverage rate: 10000.0\nBuffer length: 0.0\nMost recent transform: 0.0\nOldest transform: 0.0\n"];
"base_link" -> "pole_bottom_2_link"[label=" Broadcaster: /robot_state_publisher\nAverage rate: 10000.0\nBuffer length: 0.0\nMost recent transform: 0.0\nOldest transform: 0.0\n"];
"base_link" -> "pole_bottom_3_link"[label=" Broadcaster: /robot_state_publisher\nAverage rate: 10000.0\nBuffer length: 0.0\nMost recent transform: 0.0\nOldest transform: 0.0\n"];
"base_link" -> "pole_bottom_4_link"[label=" Broadcaster: /robot_state_publisher\nAverage rate: 10000.0\nBuffer length: 0.0\nMost recent transform: 0.0\nOldest transform: 0.0\n"];
"base_link" -> "pole_bottom_5_link"[label=" Broadcaster: /robot_state_publisher\nAverage rate: 10000.0\nBuffer length: 0.0\nMost recent transform: 0.0\nOldest transform: 0.0\n"];
"base_link" -> "pole_kinect_0_link"[label=" Broadcaster: /robot_state_publisher\nAverage rate: 10000.0\nBuffer length: 0.0\nMost recent transform: 0.0\nOldest transform: 0.0\n"];
"base_link" -> "pole_kinect_1_link"[label=" Broadcaster: /robot_state_publisher\nAverage rate: 10000.0\nBuffer length: 0.0\nMost recent transform: 0.0\nOldest transform: 0.0\n"];
"base_link" -> "pole_middle_0_link"[label=" Broadcaster: /robot_state_publisher\nAverage rate: 10000.0\nBuffer length: 0.0\nMost recent transform: 0.0\nOldest transform: 0.0\n"];
"base_link" -> "pole_middle_1_link"[label=" Broadcaster: /robot_state_publisher\nAverage rate: 10000.0\nBuffer length: 0.0\nMost recent transform: 0.0\nOldest transform: 0.0\n"];
"base_link" -> "pole_middle_2_link"[label=" Broadcaster: /robot_state_publisher\nAverage rate: 10000.0\nBuffer length: 0.0\nMost recent transform: 0.0\nOldest transform: 0.0\n"];
"base_link" -> "pole_middle_3_link"[label=" Broadcaster: /robot_state_publisher\nAverage rate: 10000.0\nBuffer length: 0.0\nMost recent transform: 0.0\nOldest transform: 0.0\n"];
"base_link" -> "pole_top_0_link"[label=" Broadcaster: /robot_state_publisher\nAverage rate: 10000.0\nBuffer length: 0.0\nMost recent transform: 0.0\nOldest transform: 0.0\n"];
"base_link" -> "pole_top_1_link"[label=" Broadcaster: /robot_state_publisher\nAverage rate: 10000.0\nBuffer length: 0.0\nMost recent transform: 0.0\nOldest transform: 0.0\n"];
"base_link" -> "pole_top_2_link"[label=" Broadcaster: /robot_state_publisher\nAverage rate: 10000.0\nBuffer length: 0.0\nMost recent transform: 0.0\nOldest transform: 0.0\n"];
"base_link" -> "pole_top_3_link"[label=" Broadcaster: /robot_state_publisher\nAverage rate: 10000.0\nBuffer length: 0.0\nMost recent transform: 0.0\nOldest transform: 0.0\n"];
"base_link" -> "wheel_left_link"[label=" Broadcaster: /robot_state_publisher\nAverage rate: 20.204\nBuffer length: 4.9\nMost recent transform: 21980.357\nOldest transform: 21975.457\n"];
"base_link" -> "wheel_right_link"[label=" Broadcaster: /robot_state_publisher\nAverage rate: 20.204\nBuffer length: 4.9\nMost recent transform: 21980.357\nOldest transform: 21975.457\n"];
edge [style=invis];
 subgraph cluster_legend { style=bold; color=black; label ="view_frames Result";
"Recorded at time: 21980.414"[ shape=plaintext ] ;
}->"odom";
}